hike_2020_11_29
…
hike_data <- tuesdata$hike_data

Reprocessing

    tuesdata, .   Viewer       .

       hike_data. Dataframe      , -       ,  .         (features ),  R    ,  ,      read.csv.   tidyverse .

,     ,       ID.

hike_data %>% 
  count(name, sort = TRUE)

## # A tibble: 1,924 x 2
##    name               n
##    <chr>          <int>
##  1 Dry Creek          3
##  2 Rock Creek         3
##  3 Baldy Mountain     2
##  4 Beaver Lake        2
##  5 Big Tree Trail     2
##  6 Blue Lake          2
##  7 Boulder Lake       2
##  8 Canyon Lake        2
##  9 Cap Sante Park     2
## 10 Copper Creek       2
## #  with 1,914 more rows
…
